[
    {
      "title": "Genova: la casa dei novizi",
      "id": "D8MxsQhXOl8"
    },
    {
      "title": "Il noviziato in 6 parole",
      "id": "WRHpSWdPfzg"
    },
    {
      "title": "Primi voti: quel legame che libera",
      "id": "MFvnH8Yc4zg"
    },
    {
      "title": "Leonardo, Mariano e Cristiano sacerdoti",
      "id": "WORLZxgcqO0"
    }
  ]
