[
    {
      "title": "S. Francesco Saverio SJ",
      "category": "Personaggi",
      "content": "Il “San Paolo delle Indie”, di Navarra, è a Parigi in stanza con Ignazio e Pietro Favre. Diffidente verso Ignazio, vuole proseguire la sua carriera. A vincerlo è l'affetto dei due per Cristo. Viene inviato in India al posto di un gesuita malato. Affronta pericoli ed imprevisti con i poveri pescatori dell’India, i nobili intellettuali del Giappone, i commercianti senza scrupoli. Di conforto le lettere di altri gesuiti. Intere popolazioni ascoltano il Vangelo per la prima volta. Muore a 46 anni, nell'isola di Sancian nel 1552, alle porte della Cina.",
      "image": "https://gesuiti.it/wp-content/uploads/2012/07/Saverio.jpg",
      "year": 1506,
      "yearEnd": 1552,
      "isMilestone": true
    },
    {
      "title": "S. Pierre Favre SJ",
      "category": "Personaggi",
      "content": "Tra gli studenti da qui nacque la Compagnia, è il più brillante e disponibile. Figlio di pastori della Savoia, desidera studiare. A Parigi è in stanza con Ignazio e Francesco Saverio. Si crea subito un’intesa: Pietro aiuta Ignazio negli studi e quest’ultimo nella vita spirituale. A Roma, Ignazio l’avrebbe voluto Superiore al suo posto. Ma Pietro è a Parma, poi in Germania, nei Paesi Bassi e in Spagna, per ristabilire la pace. Muore a Roma nel 1547. Molti, suo tramite, si convertirono e alcuni, come Pietro Canisio e Francesco Borgia, diventarono gesuiti.",
      "image": "https://gesuiti.it/wp-content/uploads/2012/07/favre.jpg",
      "year": 1506,
      "yearEnd": 1547
    },
    {
      "title": "S. Francesco Borgia SJ",
      "category": "Personaggi",
      "content": "Di importante famiglia aristocratica in Spagna, è duca di Gandia e viceré di Catalogna. Alla morte della moglie abbandona cariche e privilegi ed entra in Compagnia, contribuendo alla diffusione dell’ordine su richiesta di Ignazio. Rifiuta la nomina a cardinale, contraria alle regole della Compagnia. Nel 1565 è eletto Superiore Generale. La Compagnia cresce e intensifica l' attività missionaria, grazie alla sua ampia visione apostolica. A lui si devono decisioni su noviziati, centri studi filosofici e teologici per i gesuiti in formazione.",
      "image": "https://gesuiti.it/wp-content/uploads/2012/07/Borgia.jpg",
      "year": 1510,
      "yearEnd": 1572
    },
    {
      "title": "S. Pietro Canisio SJ",
      "category": "Personaggi",
      "content": "Nasce l'8 maggio 1521 a Nimega, Olanda. Entra in Compagnia nel 1543. É al Concilio di Trento, in Baviera decano, rettore e vice-cancelliere dell’università di Ingoldstadt, a Vienna in ospedali e carceri. Nel 1556 Provinciale della Germania Superiore, crea comunità e partecipa a negoziati per la Chiesa. Con i suoi scritti, esercita un forte influsso per risanare le radici spirituali dei credenti. Muore il 21 dicembre 1597 a Friburgo. Beatificato nel 1864, secondo Apostolo della Germania nel 1897, è canonizzato nel 1925 e dichiarato Dottore della Chiesa.",
      "image": "https://gesuiti.it/wp-content/uploads/2012/07/canisio.jpg",
      "year": 1521,
      "yearEnd": 1597
    },
    {
      "title": "P. Alessandro Valignano SJ",
      "category": "Personaggi",
      "content": "Nasce il 7 febbraio 1539 a Chieti. Nel 1573 è visitatore dell’India e del Lontano Oriente. Vive tra Giappone, Cina e India, fonda il collegio di Macao. Nel 1577 avvia rapporti con i siro-malabaresi. Lavora per formare un clero indigeno in India. Obbliga le comunità a scrivere lettere per far conoscere la missione in Europa, a cui chiede l’invio di missionari con necessaria formazione. In Giappone forma leader ecclesiastici e secolari. Redige uno specifico piano pedagogico. Avvia la letteratura giapponese cristiana. Muore il 20 gennaio 1606 in Cina, a Macao.",
      "image": "https://gesuiti.it/wp-content/uploads/2012/07/valignano.jpg",
      "year": 1539,
      "yearEnd": 1606
    },
    {
      "title": "Approvazione della Compagnia",
      "category": "Eventi",
      "content": "A Roma, Ignazio e i compagni, si strutturano con le regole del diritto canonico. La Formula Instituti, approvata da Paolo III il 3 settembre 1539, contiene il carattere apostolico, il fine - far progredire gli uomini nella fede e nella cultura religiosa-, la povertà, l’obbedienza alla Santa Sede e al preposito, l’abolizione del coro, la promessa di recarsi ovunque il papa avesse indicato. Paolo III approva con la bolla Regimini militantis Ecclesiae del 27 settembre 1540, con il limite di 60 membri.",
      "image": "https://gesuiti.it/wp-content/uploads/2012/07/approvazione.jpg",
      "year": 1540,
      "yearEnd": "",
      "isMilestone": true
    },
    {
      "title": "L'elezione di Ignazio a preposito generale",
      "content": "Con l’approvazione da parte del Papa, la Compagnia deve eleggere un proprio Superiore (preposito generale): l’elezione ha luogo il 2 aprile 1541. Tutti eleggono Ignazio. Solo lui indica sulla propria scheda di dare il proprio voto a chi avrebbe riportato il maggior numero di suffragi, eccettuato il proprio nome. Una nuova elezione, il 13 aprile, dà il medesimo risultato. Ignazio si ritira nel convento di San Pietro in Montorio. Là il francescano Fra Teodoro da Lodi, che riceve la sua confessione, gli ordina di accettare e Ignazio acconsente.",
      "image": "https://gesuiti.it/wp-content/uploads/2012/11/generale.jpg",
      "year": 1541
    },
    {
      "title": "S. Roberto Bellarmino SJ",
      "category": "Personaggi",
      "content": "Santo e dottore della Chiesa, si distingue nelle dispute con i protestanti per la forza delle argomentazioni e i toni pacati. Collabora alla revisione della Vulgata. Vescovo di Capua e cardinale contro la sua volontà, nel 1599 è membro del Santo Romano Uffizio, servizio vissuto nella disposizione d’animo di salvare l’affermazione del prossimo più che condannarla. Segue i processi di tutto il XVII secolo, contro Giordano Bruno e contro Galileo Galilei. Muore a S. Andrea al Quirinale nel 1621, dopo una vita di profonda umiltà e semplicità.",
      "image": "https://gesuiti.it/wp-content/uploads/2012/07/Bellarrmino.jpg",
      "year": 1542,
      "yearEnd": 1621
    },
    {
      "title": "Ministeri speciali: prostitute, orfani ed ebrei",
      "category": "Vicende",
      "content": "Ignazio e i primi compagni si dedicano anche a lavori che non resteranno tipici per i gesuiti, ma di cui c'è pure bisogno. Prostitute, orfani ed ebrei diventano sfide che Ignazio e compagni affrontano in una piena gratuità. Nel XVI sec. la prostituzione desta in Italia  preoccupazione soprattutto per la comparsa della sifilide, che fa del fenomeno una minaccia per la salute pubblica. Nel 1543 Ignazio fonda a Roma la casa di Santa Marta, per il recupero delle prostitute, e altrove i gesuiti ne seguono l'esempio. Alle donne viene offerta la possibilità di sposarsi, far le domestiche o entrare in convento. Forse l'aspetto curioso è la pietà e la pratica religiosa della maggior parte delle donne che arrivano alle porte di Ignazio. Nello stesso periodo, il primo a occuparsi dei bambini di strada è il veneziano Girolamo Miani che, dopo conversione religiosa, fonda la Compagnia dei servi dei poveri. Il suo programma è di provvedere ai bambini vitto e alloggio e insegnare a leggere e scrivere, insieme a un mestiere. Trovandosi a Venezia, cinque gesuiti conoscono l'opera del Miani lavorando in uno dei suoi istituti. Ne viene che, per pressione o ispirazione dei gesuiti, istituti simili vengono fondati in altre città italiane. Nello Stato pontificio, gli ebrei avevano goduto più libertà che in altri paesi. Nel 1492 la Spagna e nel 1496 il Portogallo promulgano decreti di espulsione. A metà del XVI sec. la maggior parte degli ordini religiosi rifiuta di ammettere nuovi membri di origine ebraica. Anche la nuova Compagnia di Gesù subisce queste pressioni e, pur se negli anni anche tra i gesuiti le posizioni mutano, Ignazio le rifiuta  e Laìnez, di origine ebraica, eletto secondo generale dell'ordine, testimonia che almeno agli inizi quella linea prevalse. Dedicarsi a questi ministeri speciali conferma l'ispirazione originaria e il coraggio di Ignazio di cercare e trovare Dio in tutte le cose.",
      "image": "https://gesuiti.it/wp-content/uploads/2012/07/santamarta.jpg",
      "year": 1543,
      "yearEnd": ""
    },
    {
      "title": "Gli Esercizi Spirituali, unico testo di preghiera approvato da una bolla pontificia",
      "category": "Eventi",
      "content": "Francesco Borgia fa pervenire a Papa Paolo III una singolare petizione: l'approvazione pontificia di un libretto di Esercizi Spirituali, scritto da Ignazio di Loyola. I primi compagni già predicano questi Esercizi con molto frutto. Tuttavia, per essi, Ignazio era stato sospettato e messo in carcere dall'Inquisizione ad Alcalà e a Salamanca. La risposta del Papa arriva il 31 luglio 1548: 'Avendo fatto esaminare detti Esercizi e udite anche testimonianze e rapporti favorevoli [...] abbiamo accertato che detti Esercizi sono pieni di pietà e santità, e sono e saranno molto utili per il progresso spirituale dei fedeli. Inoltre è per noi doveroso riconoscere che Ignazio e la Compagnia da lui fondata vanno raccogliendo frutti abbondanti di bene in tutta la Chiesa; e di questo molto merito è da attribuire agli Esercizi Spirituali. Perciò [...] esortiamo i fedeli d'ambo i sessi, ovunque nel mondo, di avvalersi dei benefici di questi Esercizi e di lasciarsi plasmare da essi.' A questa prima solenne approvazione, ne faranno seguito altre. In questo modo, la pratica degli Esercizi Spirituali annuali diventa patrimonio di tutti gli istituti religiosi.",
      "image": "https://gesuiti.it/wp-content/uploads/2012/07/EESS.jpg",
      "year": 1548,
      "yearEnd": "",
      "isMilestone": true
    },
    {
      "title": "S. Stanislao Kostka SJ",
      "category": "Personaggi",
      "content": "Nasce in Polonia il 28 ottobre 1550. La famiglia, cattolica e principesca, lo vuole diplomatico. Studia a Vienna dai gesuiti. Ne ammira lo stile. Desidera unirsi loro. Il padre si oppone. Uno dei gesuiti gli consiglia di andare in Germania. Parte a piedi e incontra il Provinciale Canisio che lo prova come domestico. Poi lo invia a Roma. Arriva a piedi il 27 ottobre 1567, dal Borgia. Inaugura il noviziato di Sant’Andrea al Quirinale. Contrae la malaria. Muore il 15 agosto 1568. Legato all’eucarestia e a Maria, è santo con Luigi Gonzaga il 31 dicembre 1761 e patrono dei novizi.",
      "image": "https://gesuiti.it/wp-content/uploads/2012/07/kostka.jpg",
      "year": 1550,
      "yearEnd": 1568
    },
    {
      "title": "I gesuiti al Concilio di Trento: pacati nel parlare, tranquilli nell'ascolto",
      "category": "Vicende",
      "content": "Fin dal suo inizio sono due i compiti del Concilio di Trento: affermare la dottrina contro le nuove eresie luterane e riformare la morale contro gli abusi disciplinari. Al loro assolvimento parteciparono anche due gesuiti, Laìnez e Salmeron, incaricati come teologi e designati da Ignazi su richieste di papa Paolo III. Si unì anche padre Jay, intervenuto come procuratore del vescovo di Augusta. Ignazio si rese presente con una lettera, che conteneva delle istruzioni su come i gesuiti a Trento si dovessero comportare, desiderando dai vescovi conciliari benevolenza per la nascente Compagnia e immaginando i suoi confratelli più come mediatori che come protagonisti dell'evento. Le indicazioni di Ignazio avvertono di essere pacati nel parlare e di ascoltare tranquillamente, in modo da capire e valutare le opinioni altrui, in modo da poter rispondere oppure tacere. Ignazio ci tiene che i padri diano edificazione, continuando a dedicarsi, nel tempo possibile, ai consueti ministeri della predicazione, dell'ascolto delle confessioni, tenendo conferenze e insegnando ai fanciulli, visitando i poveri negli ospedali ed esortando i vicini per muoverli alla devozione e alla preghiera. Infine, Ignazio li esorta a uno stile di vita che includa un incontro tra loro ogni sera per discutere le esperienze del giorno, stabilire l'agenda dell'indomani e prendere misura correttive di qualsiasi cosa potesse risultare sbagliata nella loro condotta. Può stupire che Ignazio si sia dedicato solo così al Concilio di Trento. Dopo di lui, anche gli altri gesuiti, salvi quelli direttamente coinvolti, dedicarono poca attenzione. Essi sapevano comunque che il Concilio si rivolgeva prevalentemente ai protestanti e, certamente desiderosi di predicare e insegnare in conformità ai decreti dottrinali, non li vedevano tuttavia diretti alla Compagnia.",
      "image": "https://gesuiti.it/wp-content/uploads/2012/07/trento.jpg",
      "year": 1551,
      "yearEnd": 1552
    },
    {
      "title": "Il Collegio romano e la nascita della Gregoriana",
      "category": "Vicende",
      "content": "Entusiasmatosi per il successo, tanto scientifico come apostolico, del collegio-università a Messina (1547), Ignazio pensa alla città di Roma. L’attività comincia nel 1551 in una modesta casa della via Capitolina con quindici studenti gesuiti. Data l’insufficienza degli spazi per il successo ottenuto, ci si sposta all’attuale via del Gesù. Le lettere d’Ignazio mostrano che egli pretende creare un seminario che sia un modello per fondazioni somiglianti in altri paesi, alle quali il <strong><em>Collegio Romano</em> </strong>fornirebbe professori ben preparati. L’istruzione è impartita gratuitamente. Ignazio si impegna attivamente per dotare il Collegio di una macchina da stampa con il fine di pubblicare libri di testo a basso costo per gli studenti poveri. Nel 1557 il Collegio deve nuovamente cambiare sede e si trasferisce sul terreno dove è situata attualmente la chiesa di S. Ignazio, ma in cui, all’epoca, si fa costruire la chiesa in onore dell’Annunziata. Il Santo Padre Gregorio XIII è considerato il secondo fondatore in quanto nel 1581 assicura una rendita che permette di  mantenere un centinaio di studenti. Ma lo spazio non è sufficiente e allora si chiede di poter disporre della superficie che va dal collegio alla piazza attuale, comprando le case che lì esistono. Nel gennaio del 1582 si pone la prima pietra. All’inizio  del sec. XVII, il Collegio Romano è frequentato da 2000 studenti. Si rende necessaria la costruzione di una nuova chiesa: è l’attuale chiesa di Sant’Ignazio, iniziata nel 1626, aperta al pubblico nel 1650 e terminata nella sua ornamentazione nel 1773. L’eccellente edificio da’ un nuovo impulso allo studio della musica: le opere di teatro rappresentate dal Collegio Romano passano a far parte degli eventi  importanti nel calendario della città. Durante il tempo della soppressione della Compagnia (1773-1814) il Collegio è affidato al clero diocesano di Roma sotto la guida di una commissione di cardinali. Nel 1824 viene riaffidato alla Compagnia da Leone XII, insieme con la chiesa di Sant´Ignazio. Con gli eventi del 1870, sono soppresse le classi inferiori e, tre anni dopo, l’edificio è confiscato secondo la legislazione italiana. Si vuole conservare il nome significativo di Collegio Romano per il liceo-ginnasio. Nel 1873 le classi superiori, con il nome di <strong><em>Pontificia Università Gregoriana</em></strong>, per i 200 alunni che restano sono trasferite al vecchio palazzo Borromeo, sede storica del seminario romano. Tra il 1880 e la fine del sec. XIX, gli alunni passano da 415 a più di 2000. Per esigenze di spazio, nel 1919 il Sommo Pontefice Benedetto XV acquista un terreno nella piazza della Pilotta. Qui, a partire dal 1924, viene costruita l’attuale sede della Gregoriana. Nel 1928 Pio XI associa il Pontificio Istituto Biblico e l’Istituto Orientale alla Gregoriana, dando inizio a una stretta collaborazione tra i tre.  Oggi, al tradizionale corpo professori gesuiti si aggiungono sacerdoti di altri ordini religiosi e diocesani, religiose e secolari. Gli alunni superano le 3000 unità.",
      "image": "https://gesuiti.it/wp-content/uploads/2012/07/collegio-romano.jpg",
      "year": 1551,
      "yearEnd": ""
    },
    {
      "title": "P. Matteo Ricci SJ",
      "category": "Personaggi",
      "content": "Al Collegio Romano è segnato dai corsi di scienze naturali. Vista la memoria, i superiori lo inviano in Cina. Vince la diffidenza degli ufficiali dell’impero grazie alla curiosità per alcuni oggetti: un orologio, un prisma, un dipinto della Madonna, una carta geografica. Le conoscenze scientifiche, le qualità morali e la sua capacità d’integrazione ne conquistano il cuore. Accede alla corte dell’imperatore Wanli. Muore a Pechino nel 1610. Tra le sue opere i trattati morali, di aritmetica, geometria e astronomia, il <i>Mappamondo</i> e <i>Il vero significato del Signore del Cielo</i>.",
      "image": "https://gesuiti.it/wp-content/uploads/2012/07/MatteoRicci.jpg",
      "year": 1552,
      "yearEnd": 1610
    },
    {
      "title": "La più grande città dell'America Latina è stata fondata dai gesuiti",
      "category": "Vicende",
      "content": "San Paolo (São Paulo) è la più grande città dell’America Latina con oltre 10 milioni di abitanti (più di 19 milioni se si considera anche l’area metropolitana). Nel 1554 un piccolo gruppo di missionari gesuiti sceglie come luogo per la fondazione di un collegio una collina che oggi si trova nel centro città. Il giorno 25 gennaio 1554, con una messa, si inaugura il  collegio. Il nome “São Paulo” è scelto perché la Chiesa in quel giorno festeggiava la conversione di San Paolo. Oggi, nel luogo del collegio è presente un museo (<a title=\"Pateo do Collegio\" href=\"http://www.pateodocollegio.com.br/\" target=\"_blank\">Pateo do collegio</a> ) in cui è possibile ammirare in un plastico la ricostruzione del collegio e dell’area circostante così come era all’epoca.",
      "image": "https://gesuiti.it/wp-content/uploads/2012/07/sanPaulo.jpg",
      "year": 1566,
      "yearEnd": ""
    },
    {
      "title": "S. Luigi Gonzaga SJ",
      "category": "Personaggi",
      "content": "Patrono dei giovani, Luigi nasce a Mantova nel 1568. Primogenito del marchese di Castiglione, ramo cadetto dei Gonzaga di Mantova, fin da bambino cerca di realizzare i suoi grandi desideri. Sperimenta il meglio e il peggio della grande nobiltà italiana. Si reca in Spagna per l’incoronazione dell' imperatore Federico II. A 17 anni, sceglie di diventare gesuita. Muore a Roma, a 23 anni, studente al Collegio Romano, servendo i malati durante un’epidemia di peste. È sepolto nella chiesa di Sant’Ignazio. Nella Compagnia è patrono dei gesuiti che studiano teologia.",
      "image": "https://gesuiti.it/wp-content/uploads/2012/07/gonzaga.jpg",
      "year": 1568,
      "yearEnd": 1591
    },
    {
      "title": "La diffusione della Compagnia",
      "category": "Vicende",
      "content": "Dalla nascita fino a tutto il XVII secolo la Compagnia ha visto crescere il numero dei suoi membri. Ma il vero boom è avvenuto tra il 1580 e il 1620, sotto il generalato di Claudio Acquaviva con un salto da 5.200 a 13.100 membri. Di pari passo all'aumento dei numeri, si assiste a una espansione delle attività della Compagnia in vari campi. Ad esempio divenendo consiglieri di cardinali e confessori di re, e riuscendo a ritagliarsi un ruolo importante nell'attività di contrasto del protestantesimo che si stava diffondendo in tutta l'Europa dell'Est, e non solo: infatti si recarono anche in Inghilterra e in Irlanda, dove <a title=\"Edmund Campion\" href=\"http://it.wikipedia.org/wiki/Edmund_Campion\">Campion</a> e <a title=\"John Ogilvie\" href=\"http://it.wikipedia.org/wiki/John_Ogilvie\">Ogilvie</a> furono martirizzati.  Parallelamente allo sforzo di \"ricattolicizzazione\" dell'Europa, l'aumento numerico permise ai gesuiti di aprire nuovi fronti apostolici. Da una parte estendendo le missioni in Estremo Oriente, dove saranno inviati gesuiti come <a href=\"http://gesuiti.it/p-matteo-ricci-sj/\">Matteo Ricci</a>, <a href=\"http://gesuiti.it/p-alessandro-valignano-sj/\">Alessandro Valignano</a> e <a href=\"http://it.wikipedia.org/wiki/Ippolito_Desideri\" target=\"_blank\" rel=\"noopener noreferrer\">Ippolito Desideri</a>; dall'altra iniziando ad annunciare il Vangelo nelle Americhe.  &nbsp;",
      "image": "",
      "year": 1580,
      "yearEnd": 1620,
      "isMilestone": true
    },
    {
      "title": "P. Claudio Aquaviva SJ",
      "category": "Personaggi",
      "content": "Nasce il 14 settembre 1543 ad Atri, Teramo. Con lui, quinto Padre generale per 34 anni, la Compagnia passa da 5.165 a 13.112 gesuiti. Custode dell’autenticità dell’Istituto lotta contro gli oppositori interni ed esterni. Flessibile per le controversie teologiche, distingue dottrina e opinione privata. Conferma l’ora di meditazione quotidiana e i due esami di coscienza. Dà forma al piano della terza probazione, stabilisce un padre spirituale per comunità. Tra i documenti il <i>Directorio degli Esercizi Spirituali</i> e la <i>Ratio Studiorum</i>. Muore il 31 gennaio 1615 a Roma.",
      "image": "https://gesuiti.it/wp-content/uploads/2012/07/acquaviva.jpg",
      "year": 1581,
      "yearEnd": 1615
    },
    {
      "title": "S. Giovanni Berchmans SJ",
      "category": "Personaggi",
      "content": "Giovanni Berchmans nasce a Diest nel 1599, figlio di un calzolaio fiammingo, primogenito di 5 figli. Studia latino nella Scuola Grande di Diest. Nel 1612, per problemi economici, entra  nella casa del canonico Froymont, a Malines, come cameriere e istitutore di giovani nobili, per continuare gli studi. Il 24 settembre 1618 emette la prima professione. Nel 1619 è a Roma per gli studi filosofici al Collegio Romano. Muore 2 anni dopo, il 13 agosto 1621. É rappresentato con un crocefissoe il libro delle regole della comunità, che seguiva con cura.",
      "image": "https://gesuiti.it/wp-content/uploads/2012/07/Berchmans.jpg",
      "year": 1599,
      "yearEnd": 1621
    },
    {
      "title": "L'innovazione della Ratio Studiorum",
      "category": "Eventi",
      "content": "Con il diffondersi dei Collegi, viene redatta e perfezionata in 4 edizioni successive la “ratio studiorum”, raccolta di documenti per l’organizzazione e il metodo di studio. Riferimento per la pedagogia ignaziana, è metodo ancora oggi adottato nelle scuole. Nel rapporto personale tra educatore e studente il punto di forza, come promuovere un apprendimento cooperativo, favorire uno studio attivo.",
      "image": "https://gesuiti.it/wp-content/uploads/2012/07/ratiostudiorum.jpg",
      "year": 1599,
      "yearEnd": "",
      "isMilestone": true
    },
    {
      "title": "La questione dei riti malabarici",
      "category": "Vicende",
      "content": "La<em> Controversia dei riti malabarici</em> fu una disputa sviluppatasi agli inizi del Seicento in concomitanza con l'affine e coeva <em>Questione dei riti cinesi</em>. L'espressione trae origine dalla regione indiana del Malabar, in cui allora era presente un'importante missione gesuitica, più precisamente nella città di Madura (oggi Madurai). Nulla a che fare, dunque, con la Chiesa cattolica siro-malabarese.  Tale disputa nacque in occasione del viaggio in India del missionario gesuita Roberto de Nobili, compiuto nel 1604: de Nobili ruppe infatti la consuetudine dei missionari di impedire ai neofiti il ricorso a pratiche e usanze locali molto antiche, come l'uso di alcuni segni distintivi delle caste e certe abluzioni (a cui fu in seguito attribuito il nome di riti malabarici). Nonostante avesse portato a un consistente aumento delle conversioni, tale condotta fu messa in discussione a Roma perché considerata troppo lassista. Nel 1623 papa Gregorio XV si pronunciò a favore di de Nobili, ma agli inizi del Settecento furono i cappuccini a pronunciarsi contro formulando 36 tesi di critica. Una prima condanna dei Riti Malabarici venne promulgata nel 1704 dal legato papale Carlo Tommaso Maillard de Tournon, diretto in Cina. Nel 1744 papa Benedetto XIV sancì le 16 norme a cui i missionari cattolici erano obbligati ad attenersi nell'attività di apostolato, tra cui l'obbligo di far assumere ai neofiti nomi di battesimo dei santi cristiani e di vietare l'uso dei segni distintivi delle caste. I missionari dovevano anche pronunciare un giuramento di fedeltà. Fu poi papa Pio XII, nell'aprile 1940, ad abrogare il divieto dei riti malabarici e il giuramento di fedeltà.",
      "image": "https://gesuiti.it/wp-content/uploads/2012/07/ritimalabarici.jpg",
      "year": 1604,
      "yearEnd": ""
    },
    {
      "title": "I gesuiti e Galileo Galilei",
      "category": "Vicende",
      "content": "Lo scienziato pisano ha avuto relazioni con molti gesuiti lungo tutta la sua vita. Il primo di essi è stato Cristoforo Clavio, che riconoscendone le capacità lo raccomanda per un posto di insegnante a Pisa. I due mantennero per molto tempo un contatto epistolare. Un altro gesuita con cui fu in contatto fu Roberto Bellarmino, il quale cercò di impedire la messa all'indice del Sidereus Nuncius durante il primo processo del 1616. La commissione cardinalizia però non accolse le nuove teorie di Galileo, e lo dichiarò incompatibile con la fede cattolica. Non sempre però c'è stato accordo tra i membri dell'ordine e lo scienziato: con P. Orazio Grassi SJ, matematico ed astronomo, la polemica sulla natura delle comete fu molto dura, e Il Saggiatore fu il frutto di questa discussione. Comunque sia, anche dopo la morte di Bellarmino nel 1621 Galileo trovò sostegno presso gli uomini di scienza della Compagnia: quando Galileo fu messo nuovamente sotto processo a causa del <em>Dialogo sopra i Massimi Sistemi</em>, uno dei consulenti convocati fu P. Melchior Inchofer SJ, anche lui matematico, che dichiarò che le accuse contro Galileo non sussistevano. Nonostante questo, fu condannato di nuovo.",
      "image": "https://gesuiti.it/wp-content/uploads/2012/07/Galileo.jpg",
      "year": 1616,
      "yearEnd": ""
    },
    {
      "title": "Ignazio e Francesco Saverio proclamati santi",
      "content": "Nel 1622 Ignazio e Francesco Saverio vengono proclamati santi con Filippo Neri, Teresa d’Avila e Isidoro il contadino. “I nomi più grandi nella storia della Compagnia” si legge nel testo della canonizzazione. ”Il primo, per ammirabile conversione, austerezze di penitente, magnifiche e svariatissime imprese per maggior gloria di Dio e l’esaltazione di santa Chiesa; il secondo per slanci d’un’accesissima carità, indicibili fatiche tra i gentili e prodigi degni dei primi apostoli”. Insieme, Ignazio, dopo aver attraversato l’ Europa a piedi, poi a Roma per seguire il volere di Dio, Francesco Saverio, in viaggio, per diffondere la parola di Cristo ai confini del mondo.",
      "image": "https://gesuiti.it/wp-content/uploads/2012/07/canonizzazione.jpg",
      "year": 1622,
      "isMilestone": true
    },
    {
      "title": "La polemica con i giansenisti",
      "category": "Vicende",
      "content": "E' una delle dispute teologiche più importanti di cui la Compagnia di Gesù è stata protagonista. I giansenisti sostenevano che l'uomo è destinato a fare il male a causa del peccato originale. Da questa condizione non può uscire se non per l'aiuto della grazia. Anche la buona volontà e le buone opere non sarebbero che il frutto del male che l'uomo porta dentro di sé. A questa teologia così pessimista, i gesuiti oppongono una interpretazione opposta, sostenendo invece che l'uomo conserva la possibilità di scegliere il bene anche dopo la caduta di Adamo. Sebbene in maniera ridotta, l'uomo è ancora libero di scegliere. Il dibattito tra queste due scuole non resta a livello accademico, ma finisce per influenzare il modo in cui i seguaci dei giansenisti vivono il loro rapporto con Dio,  adottando una disciplina morale molto rigida. Poco a poco iniziano a radunarsi intorno a questo movimento numerosi conventi femminili e maschili, sacerdoti, vescovi e un folto gruppo di laici. La Francia per prima, ma poi molti altri paesi dell'Europa cattolica, sono addirittura divisi a metà in un periodo in cui la questione protestante è ancora viva. La dottrina giansenista, dopo anni di dibattiti e di accuse vicendevoli, verrà condannata come non conforme al <a href=\"http://it.wikipedia.org/wiki/Magistero_della_Chiesa_cattolica\" target=\"_blank\" rel=\"noopener noreferrer\">Magistero</a>, ma continuerà a influenzare la fede delle persone ancora per lungo tempo.",
      "image": "https://gesuiti.it/wp-content/uploads/2012/07/giansenisti.jpg",
      "year": 1635,
      "yearEnd": ""
    },
    {
      "title": "P. Claude de la Colombière SJ",
      "category": "Personaggi",
      "content": "Nasce il 2 febbraio 1641 in Francia. Il padre è notaio. Dei 7 figli, 2 muoiono e 4 si consacrano. Studia a Lione. Nel 1658 è in noviziato. Conosce i suoi limiti, specie la vanagloria. Due donne gli cambiano la vita. Suor Margherita Maria Alacoque e la duchessa di York, da cui è predicatore. Dopo un periodo di detenzione, è in Francia. Si ammala di tubercolosi. Cura la direzione spirituale dei giovani a Lione. A Paray-le-Monyal muore il 15 febbraio 1682 a 41 anni. Una totale offerta di sè a Dio. Beato nel 1929, Giovanni Paolo II lo canonizza il 31 maggio 1992.",
      "image": "https://gesuiti.it/wp-content/uploads/2012/07/De-la-Colombiere.jpg",
      "year": 1641,
      "yearEnd": 1682
    },
    {
      "title": "Fr. Andrea Pozzo SJ",
      "category": "Personaggi",
      "content": "Nasce a Trento nel 1642. Da giovane si dedica alla pittura. É gesuita a 23 anni. Tra le sue opere la decorazione della chiesa di Sant’Ignazio, a Roma in cui Ignazio riceve attraverso Cristo una luce mistica da Dio che passa ad altri santi gesuiti, e da questi ai 4 continenti conosciuti, perchè i popoli si rivolgano a Dio. Ancora, la finta cupola e l’altare di sant’Ignazio e il corridoio delle Camerette. Muore a Vienna nel 1709. Maestro nelle tecniche della prospettiva e del <i>trompe l’œil</i>, il suo trattato sulla prospettiva venne tradotto in russo e cinese.",
      "image": "https://gesuiti.it/wp-content/uploads/2012/07/Pozzo.jpg",
      "year": 1642,
      "yearEnd": 1709
    },
    {
      "title": "P. Domenico Zipoli SJ",
      "category": "Personaggi",
      "content": "Nasce a Prato nel 1688. Studia musica con Becattelli e Scarlatti. A Roma è tra i più rinomati esecutori e compositori. Entra in noviziato nel 1716. Con 53 missionari, giunge a Buenos-Aires. A Cordoba studia filosofia e teologia. Mantiene la passione per la musica, come maestro di coro e organista. Dal 1725 ha i primi sintomi di tubercolosi. Muore il 2 gennaio 1726. Negli archivi dell’America Latina diverse le sue composizioni, suonate nelle Reduciones di San Pedro e San Pablo. Il suo lavoro viene diffuso dai confratelli, tra cui Martin Schmidt a contatto con gli indios.",
      "image": "https://gesuiti.it/wp-content/uploads/2012/07/zipoli.jpg",
      "year": 1668,
      "yearEnd": 1726
    },
    {
      "title": "P. Lorenzo Ricci SJ",
      "category": "Personaggi",
      "content": "È Superiore generale (1703 - 1775) in un momento delicato della storia della Compagnia di Gesù, per le tensioni con i governi europei. Sotto di lui l’Ordine fu espulso prima da alcuni paesi come Portogallo, Francia e Spagna, le Costituzioni bruciate in piazza nonostante le proteste di Clemente XIII. Con Clemente XIV la Compagnia fu soppressa, i gesuiti integrati nel clero diocesano e religioso, Ricci imprigionato a Castel Sant’Angelo, fino alla morte, due anni dopo, vittima di umiliazioni di ogni tipo.",
      "image": "https://gesuiti.it/wp-content/uploads/2012/07/Ricci.jpg",
      "year": 1703,
      "yearEnd": 1775
    },
    {
      "title": "S. Giuseppe Pignatelli SJ",
      "category": "Personaggi",
      "content": "Nasce il 27 dicembre 1737 a Saragozza. Dopo l'espulsione dei gesuiti dalla Spagna nel 1767, si imbarca per Civitavecchia. É a Ferrara e Bologna impegnato nella conversazione spirituale. Stimato dai suoi e dai sovrani borbonici di Parma e Napoli, è il principale restauratore della Compagnia, che riorganizza da Provinciale. Si rifugia a Roma dove tratta con Pio VII gli assunti della Compagnia, dedicandosi a governo, direzione spirituale e soccorso dei poveri. Muore il 15 novembre 1811 a Roma. È beatificato da Pio XI nel 1933 e canonizzato da Pio XII nel 1954.",
      "image": "https://gesuiti.it/wp-content/uploads/2012/07/pignatelli.jpg",
      "year": 1737,
      "yearEnd": 1811
    },
    {
      "title": "La soppressione della Compagnia",
      "category": "Eventi",
      "content": "Cacciata da Portogallo, Spagna, Francia, Napoli e dalle colonie del Sud e Centro America, nel 1773 la Compagnia viene soppressa. Le corti borboniche costringono Clemente XIV a firmare il 21 luglio 1773 il decreto “Dominus ac Redemptor”. Il documento deve essere accettato dai sovrani di Stato: così la Compagnia sopravvive in Prussia e Russia. Tra le cause l’opposizione all’Illuminismo e al Giansenismo, la difesa di teorie lassiste in campo morale, l’antipatia suscitata nelle corti per il supporto alle popolazioni autoctone, contro il loro sfruttamento.",
      "image": "https://gesuiti.it/wp-content/uploads/2012/07/soppressione.jpg",
      "year": 1773,
      "yearEnd": ""
    },
    {
      "title": "La ricostituzione della Compagnia di Gesù",
      "category": "Eventi",
      "content": "Nell’agosto 1814 nella cappella della congregazione dei nobili a Roma, alla presenza di una grande folla, tra cui 150 gesuiti dei tempi della soppressione, Papa Pio VII fa leggere la bolla Sollicitudo omnium ecclesiarum con cui la Compagnia è ricostituita. I gesuiti sono 600. A gruppi o da soli tornano nelle terre da cui erano usciti: riaprono chiese e scuole. Il contesto europeo è cambiato e anche la Compagnia.",
      "image": "",
      "year": 1814,
      "yearEnd": "",
      "isMilestone": true
    },
    {
      "title": "P. Angelo Secchi SJ",
      "category": "Personaggi",
      "content": "P. Secchi (Reggio Emilia 1818 - Roma 1878) è uno dei più importanti astrofisici. Scopre che le stelle possono essere di quattro tipi, in base alla composizione spettrale. É il fondatore della meteorologia, medaglia d’oro all’esposizione universale di Parigi, nel 1867. Quando le truppe del Regno d’Italia entrano a Roma nel 1870, i religiosi sono espulsi e i loro edifici diventano dello Stato. Per la fama, gli si permette di proseguire le ricerche nel suo osservatorio, sopra la falsa cupola di Sant’Ignazio, lì costruito per la stabilità che i pilastri davano agli strumenti.",
      "image": "https://gesuiti.it/wp-content/uploads/2012/07/secchi.jpg",
      "year": 1818,
      "yearEnd": 1878
    },
    {
      "title": "P. Gerard Manley Hopkins SJ",
      "category": "Personaggi",
      "content": "Un «piccolo pacco d’esplosivo ad alto potenziale», capace di liberare la poesia inglese «dal “ron ron” della tradizione ottocentesca», così Attilio Bertolucci ha definito l’opera di Gerard Manley Hopkins (1844-1889), uno dei fondatori della poesia inglese moderna e contemporanea. «Come salvare la bellezza dallo svanire lontano?»: questa è la domanda fondamentale che genera la sua ispirazione. Lo sguardo del poeta – maturato al crogiuolo di una sofferenza profonda di cui abbiamo una eco nei suoi «terrible sonnet» – è tutto teso a scoprire la «freschezza» che vive nel «profondo delle cose», senza indugiare su ciò che induce a disperare o a credere che tutto sia destinato a finire. Nei suoi versi il mondo appare «carico», nel senso elettrico, «della grandezza di Dio» che scuote e fa vibrare il mondo, nel quale resta sempre immediatamente sensibile l'eco della gloria della creazione. Hopkins esalta dunque Dio non in quanto stabile sicurezza dell’essere, ma in quanto autore delle differenze e delle energie polarizzanti. Una poesia troppo moderna la sua, tanto da non essere compresa mentre il poeta era in vita, e che ha saputo esprimere in maniera altissima la spiritualità ignaziana.",
      "image": "https://gesuiti.it/wp-content/uploads/2012/07/Hopkins1.jpg",
      "year": 1844,
      "yearEnd": 1889
    },
    {
      "title": "Nasce \"La Civiltà Cattolica\", prima rivista in lingua italiana",
      "category": "Eventi",
      "content": "L’idea è entrare in dialogo con la cultura per preservarla dalle provocazioni risorgimentali dei massoni e dei liberali. Si utilizza l'italiano per una più ampia divulgazione. Primo direttore è P. Carlo Maria Curci. A volerla è Papa Pio IX. Scrivono solo gesuiti tra cui p. Luigi Taparelli d’Azeglio, p. Antonio Bresciani e p. Matteo Liberatore. Del 1° fascicolo, 4.200 copie, sono 7 le edizioni. Dopo 4 anni si arriva a 13.000. Il tipografo acquista una \"macchina celere\".",
      "image": "https://gesuiti.it/wp-content/uploads/2012/07/civiltacattolica.jpg",
      "year": 1850,
      "yearEnd": "",
      "isMilestone": true
    },
    {
      "title": "P. Tacchi Venturi SJ",
      "category": "Personaggi",
      "content": "Storico, diplomatico e scrittore. Nasce il 12 agosto 1861 a San Severino Marche (Macerata) e muore il 18 marzo 1956 a Roma. Per le sue doti di scrittore, è scelto dal Padre generale Luis Martín SJ per scrivere la <em>Storia della Compagnia di Gesù in Italia</em>. L’opera, che si limiterà al periodo ignaziano, si segnala per il superamento del genere letterario apologetico, per l’esattezza critico-filologica, per la ricostruzione storica e, infine, per la tesi della lenta maturazione di Ignazio e una graduale chiarificazione dei suoi piani. È responsabile per gli articoli su temi ecclesiastici della <em>Enciclopedia Italiana Treccani</em>, a partire dal quarto volume. Nel  1911-13 cura l’edizione delle lettere del suo conterraneo P. Matteo Ricci SJ nella loro edizione originale in italiano conservata negli archivi della Compagnia, grazie alla quale la figura di Ricci si impone all’attenzione degli studiosi italiani. A partire dal 1922 svolge un ruolo di mediazione tra la Santa Sede e il governo italiano per svariate questioni. Tra le più importanti, si segnalano: nel 1927-28, il suo intervento contro la pretesa statale monopolizzatrice nell’educazione della gioventù; nel 1931, la mediazione con Mussolini a favore dell’Azione Cattolica Italiana; nel 1935-36, le sue pressioni per una soluzione pacifica della guerra di Etiopia; nel 1939, la sua partecipazione attiva contro le leggi razziali che Mussolini introduce progressivamente.",
      "image": "https://gesuiti.it/wp-content/uploads/2012/07/tacchiventuri.jpg",
      "year": 1861,
      "yearEnd": 1956
    },
    {
      "title": "P. Lorenzo Rocci SJ",
      "category": "Personaggi",
      "content": "Inseriamo? Da scrivere.",
      "year": 1864,
      "yearEnd": 1950
    },
    {
      "title": "P. Teilhard de Chardin SJ",
      "category": "Personaggi",
      "content": "Teologo, antropologo e geologo conosciuto a livello internazionale, P.  Pierre Teilhard de Chardin (Orcines, 1º maggio 1881 – New York, 10 aprile 1955) ha sempre cercato di integrare il suo lavoro scientifico con la sua esperienza di fede. <a href=\"http://www.wired.com/wired/archive/3.06/teilhard.html\" target=\"_blank\">Wired</a> ha visto in lui uno dei precursori di Internet, in quanto uno dei concetti chiave del pensiero di Teilhard de Chardin è quello di noosfera, intesa come grande coscienza collettiva che nasce dalle relazioni sociali umane e si sviluppa in maniera crescente fino a renderle sempre più condivise, formando piano piano una specie di grande mente che avvolge tutta la terra. Teilhard afferma poi che questo processo giungerà al culmine alla fine dei tempi, quando le relazioni tra gli uomini e con Dio diventeranno talmente intime e totali da permetterci di essere una cosa sola con gli altri e con Dio. Il suo appoggio convinto alle tesi evoluzioniste si manifesta nelle sue tesi sul peccato originale, entrando in contrasto con le tesi classiche della dottrina della Chiesa. Oltre a perdere l'insegnamento, gli viene imposto di partire per la Cina, dove vive per vent'anni, senza che l'amore per la Chiesa venga meno. Durante questo tempo continua le sue ricerche antropologiche – con la sua équipe scopre i primi resti del <a href=\"http://it.wikipedia.org/wiki/Sinantropo\" target=\"_blank\">sinantropo</a> –, e la sua riflessione teologica, terminando di scrivere “Il Fenomeno Umano”, la <em>summa</em> del suo pensiero. Nel 1946 ritorna in Francia dove continua il suo lavoro di ricercatore, e nel 1951 si trasferisce a New York, dove vive fino alla morte. La sua figura e il suo pensiero hanno continuato a sollevare discussioni per molto tempo anche in ambito non cattolico, fino a quando anche Benedetto XVI ha riconosciuto la forza del suo pensiero e l'influsso sul Concilio Vaticano II, in modo particolare riguardo alla <em>Gaudium et Spes</em>.",
      "image": "https://gesuiti.it/wp-content/uploads/2012/07/de-chardin.jpg",
      "year": 1881,
      "yearEnd": 1955
    },
    {
      "title": "B. Rupert Mayer SJ",
      "category": "Personaggi",
      "content": "Gesuita sensibile alle ingiustizie e dallo spirito ardito, P. Rupert Mayer (Stuttgart, 1883 - Monaco 1945) nominato cappellano militare, già negli anni Venti si accorge della pericolosità del movimento nazista e predica l'inconciliabilità tra nazionalsocialismo e cristianesimo. Sfida il divieto nazista di raccogliere denaro per la Caritas, mettendosi a fare questua davanti alla chiesa di San Michele, a Monaco. A causa delle sue prediche antifasciste la Gestapo lo arresta. Rilasciato, gli viene intimato di non predicare più, ma lui continua in modo ancor più ardito, animato dalle parole di S. Paolo:\"guai a me se non annunciassi il vangelo\" (1cor 9,16). Il 5 gennaio 1938 viene nuovamente arrestato e internato nel campo di concentramento di Landsberg.  Rilasciato il 3 maggio 1938, Rupert Mayer smette di predicare, ma si rifiuta categoricamente di svelare il segreto confessionale. Il 3 novembre viene nuovamente arrestato e portato nel campo di concentramento di Sachsenhausen, vicino a Berlino e lontano dalle comunità cattoliche tedesche. Visto che il suo stato di salute va deteriorandosi, i nazisti, per non far di lui un martire, lo fanno internare nel monastero di Ettal vicino ad Oberammergau lo stesso che ospita il pastore evangelico Dietrich Bonhoeffer, anch'esso antifascista. A guerra finita Rupert Mayer rientra a Monaco, ma muore nello stesso anno (novembre 1945) mentre sta predicando dal pulpito della chiesa di Michaelskirche. È sepolto nella cripta della chiesa della congregazione mariana a Monaco, la Bürgersaalkirche. Nel 1987 viene beatificato da papa Giovanni Paolo II.",
      "image": "https://gesuiti.it/wp-content/uploads/2012/07/Mayer.jpg",
      "year": 1886,
      "yearEnd": 1945
    },
    {
      "title": "P. Miguel Agustín Pro SJ",
      "category": "Personaggi",
      "content": "Beato e martire, simbolo delle persecuzioni della chiesa messicana, P. Miguel Agostino Pro nasce il 13 gennaio 1891 a Guadalupe e muore a Città del Messico il 23 novembre 1927. La scena è quella del conflitto in Messico tra Chiesa e Stato. La politica anticlericale del movimento armato costituzionalista obbliga nel 1914 il novizio Miguel a lasciare il paese, che rivedrà per un anno solo nel luglio 1926,  mentre gli scontri attraversano il loro momento peggiore. Lavora allora nella capitale come sacerdote instancabile e brillante, generoso e ironico. In bicicletta, distribuisce settimanalmente la comunione durante riunioni clandestine e, mentre la società le respinge, aiuta le ragazze madri; inoltre, si preoccupa delle prostitute e fonda una casa per aiutarle a cambiar vita. Interiormente, sente un conflitto tra l'amore per Cristo Re, fin quasi a desiderare il martirio, e la cosapevolezza della necesità del suo sacerdozio. Tenuto sempre sotto controllo, e tuttavia interiormente libero, la sua attività ha un'eco così forte che il governo decide infine di eliminarlo. Molte volte e in molti modi diversi riesce a evitare la cattura, ma il 13 novembre 1927, quando la Lega in Difesa della Libertà Religiosa partecipa a un attentato contro Alvaro Obregòn, candidato del governo alla presidenza della repubblica, la polizia accusa anche P. Pro e i suoi fratelli, Humberto e Roberto. A nulla servono le proteste formali contro la condanna a morte, per la quale il governo viola le procedure legali tanto da anticiparne di mezz'ora l'esecuzione, per impedire ogni soccorso. Gli interventi diplomatici arrivano, ma si salva solo Roberto, ultimo a dover comparire davanti al plotone di esecuzione. Miguel e Humberto vengono fucilati alle 10 del mattino del 23 novembre 1927, gridando \"Viva Cristo Re\". P. Pro era certamente innocente. E' chiaro quindi che la sua morte serviva a indebolire la Chiesa. Viene dichiarato martire il 10 novembre 1986 e beatificato da Giovanni Paolo II il 25 settembre 1988.",
      "image": "https://gesuiti.it/wp-content/uploads/2012/07/pro.jpg",
      "year": 1891,
      "yearEnd": 1927
    },
    {
      "title": "Fr. Mario Venzo SJ",
      "category": "Personaggi",
      "content": "Fratel Mario Venzo (Rossano Veneto 1900 – Gallarate 1989) studia all'Accademia delle Belle Arti di Venezia e completa i suoi studi a Parigi, dove vive tra il 1925 e il 1940. Questo sarà un periodo molto importante per la sua crescita artistica e spirituale:  Parigi in quegli anni era una città piena di stimoli e di opportunità, luogo d'incontro di alcuni tra i più grandi artisti del 900 europeo tra cui Picasso, Dalì, Modigliani, Tozzi e De Pisis, alcuni dei quali Venzo ebbe l'opportunità di conoscere. Visse una vita da bohemien per alcuni anni nello storico quartiere di Montparnasse, dove lentamente si fece conoscere grazie alla partecipazione ad alcune esposizioni sia collettive che individuali. Questi furono anche gli anni in cui iniziò il cammino di conversione, che lo portò a scegliere la vita religiosa secondo lo stile della Compagnia di Gesù. Entrato in noviziato nel 1941, diventa fratello coadiutore, e decide di lasciare il mondo della pittura. Questo abbandono lo segna profondamente, al punto da vivere una profonda crisi dalla quale uscirà solo riprendendo a dipingere. Questo tempo di silenzio e meditazione non sarà però tempo perso: il suo stile è arricchito dalla spiritualità ignaziana, che lo avvicina alla natura in modo diverso, con uno sguardo più profondo che trova espressione attraverso colori più vivi. Dal 1948 inizia di nuovo a partecipare attivamente alla vita artistica, esponendo in Italia, Francia, Germania e arrivando fino in Brasile, in Colombia e a New York.",
      "image": "https://gesuiti.it/wp-content/uploads/2012/07/venzo.jpg",
      "year": 1900,
      "yearEnd": 1989
    },
    {
      "title": "S. Alberto Hurtado SJ",
      "category": "Personaggi",
      "content": "Uomo profondamente spirituale, infaticabile nel suo lavoro per i giovani e gli operai. Santo dedito all'apostolato sociale e giovanile e scrittore. Alberto Hurtado nasce il 22 gennaio 1901 a Vina del Mar e muore il 18 agosto 1952 a Santiago del Cile. Svolge gran parte della sua formazione da gesuita in Europa, conseguendo a Lovanio il dottorato in psicologia e pedagogia. Torna in Cile nel gennaio del 1936 e si dedica ai giovani come professore di religione e direttore spirituale del collegio di Santiago. Nel frattempo insegna pedagogia all'Università Cattolica. Ha grande amore per gli esercizi spirituali di S. Ignazio e ne propone corsi ogni volta che può. Crescendo la domanda, erige una casa di esercizi, promuovendo corsi che daranno origine a molte vocazioni per tutta la chiesa. Nel 1940 il suo primo libro  intitolato \"E' il Cile un paese cattolico?\" offre un'analisi sociologica della Chiesa in Cile che di fatto provoca una tempesta di reazioni perché scuote la coscienza dei cattolici cileni. Lavorando nella capitale viene colpito dalla situazione dei  senza tetto, e ne parla durante un ritiro. E' così che nasce l'opera per cui è più noto: El Hogar de Cristo, una casa dove i poveri possono trovare cibo e accoglienza, e nuove possibilità di vita. Inoltre i più giovani vi ricevono la formazione di base e imparano un lavoro. El Hogar de Cristo mostra presto tutta la sua forza con le 846.038 persone a cui offre asilo dal 1945 al 1951, anno precedente la morte di Alberto. Lavora sempre più vicino agli operai sapendo tenere insieme i loro problemi e i principi della dottrina sociale della chiesa. Fonda l'Associazione sindacale cilena perchè formi leader in questo campo e per loro pubblica altre tre opere: Humanismo social (1947), El orden social cristiano (1947) e Sindacalismo (1950). Già in vita gode di santità presso il popolo. Viene beatificato nel 1994 da Giovanni Paolo II e canonizzato nel 2005 da Benedetto XVI.",
      "image": "https://gesuiti.it/wp-content/uploads/2012/07/hurtado.jpg",
      "year": 1901,
      "yearEnd": 1952
    },
    {
      "title": "Padre Raffaele de Ghantuz Cubbe SJ",
      "category": "Personaggi",
      "content": "Aveva salvato tre bambini ebrei dalla deportazione a Auschwitz nascondendoli presso il Nobile collegio Mondragone di Frascati, perciò il nome di P. Raffaele de Ghantuz Cubbe SJ (Orciano Pisano 1904 - Roma 1983) sarà inciso per sempre nel giardino dei Giusti di Gerusalemme. Il 14 dicembre 2010 l'onorificenza più alta che Israele assegna a un non ebreo, quella di “Giusto fa le nazioni”, è stata conferita alla memoria del gesuita che durante la guerra nascose sotto falso nome tre bambini ebrei presso il Nobile Collegio di Mondragone a Frascati, dove era rettore.  Dal 2004 le famiglie dei salvati avevano lavorato con gli ex alunni del Mondragone per raccogliere la documentazione necessaria a sostenere la pratica per il conferimento dell'onorificenza da parte dell’Istituto per la Memoria dei Martiri e degli Eroi dell’Olocausto “Yad Vashem” di Gerusalemme, istituito dal Parlamento israeliano nel 1953 con la finalità di commemorare i sei milioni di ebrei uccisi dai nazisti e dai loro collaboratori e di mantenere viva la memoria dell’Olocausto nelle generazioni successive. “E’ stato P. Cubbe, insieme con i suoi confratelli, P. Primo Renieri, P. Dante Marsecano, P. Alberto Parisi, P. Ulisse Floridi, P. Silvio Benassi e P. Umberto Zaccari, ad accoglierci sotto la loro protezione e a far sì che la furia omicida che si agitava sul capo degli ebrei non ci colpisse”, hanno testimoniati i “ragazzi” salvati dal padre, Marco Pavoncello e Graziano Sonnino (Mario è scomparso di recente), con i loro familiari. Il gesuita, come si legge nella motivazione del riconoscimento, scelse di nascondere i ragazzi a rischio della sua stessa vita e senza tentativi di convertire i piccoli alla fede cattolica.",
      "image": "https://gesuiti.it/wp-content/uploads/2012/09/Cubbe.jpg",
      "year": 1904,
      "yearEnd": 1983
    },
    {
      "title": "P. Pedro Arrupe SJ",
      "category": "Personaggi",
      "content": "Pedro Arrupe nasce nei Paesi Baschi, a Bilbao, il 14 novembre 1907. Compie i suoi studi di medicina a Madrid, durante i quali matura la scelta di diventare gesuita. Entra in noviziato nel 1927, e alla fine della formazione è inviato in Giappone come missionario. Diventato maestro dei novizi, si trova a Hiroshima quando il 6 agosto 1945 viene sganciata la bomba atomica sulla città. Per aiutare la popolazione trasforma il noviziato in un ospedale da campo, e grazie alla sua formazione medica è in grado di aiutare molti feriti. Questa esperienza lo marca profondamente. Nel 1965 viene eletto Superiore Generale della Compagnia di Gesù, accompagnando l'ordine dei gesuiti attraverso il grande cambiamento che  rappresenta il Concilio Vaticano II: il grande sforzo di rinnovamento che la Chiesa affronta si riflette anche nella vita e nelle opere dei gesuiti, che si trovano a chiedersi che cosa il Signore voglia da loro in quel momento di grandi cambiamenti. La questione che P. Arrupe ha più a cuore è l'attenzione agli ultimi: è sotto la sua guida che la Compagnia reinterpreta la sua missione come servizio della fede e promozione della giustizia. In maniera particolare si spende per i rifugiati, chiedendo a tutta la Compagnia di rispondere a questa sfida. E' grazie a lui che oggi il <a href=\"http://www.jrs.net/\" target=\"_blank\">JRS (Jesuit Refugees Service)</a> opera in molte zone del mondo, tra cui in Italia tramite il <a href=\"http://www.centroastalli.it/\" target=\"_blank\">Centro Astalli</a>. Nell'estate del 1981 un infarto lo conduce alla paralisi e alla perdita della parola. Lasciato l'incarico, muore nel 1991, vivendo questo lungo tempo di malattia pregando per quella Compagnia che aveva guidato per oltre trent'anni.",
      "image": "https://gesuiti.it/wp-content/uploads/2012/07/Arrupe.jpg",
      "year": 1907,
      "yearEnd": 1991,
      "isMilestone": true
    },
    {
      "title": "P. Roberto Busa SJ",
      "category": "Personaggi",
      "content": "Nasce a Vicenza nel 1913 e muore a Gallarate nel 2011. Entrato nella Compagnia di Gesù nel 1933, è docente di filosofia scolastica nella Facoltà dell’Aloisianum a Gallarate e, successivamente, docente di linguistica ed ermeneutica computazionali all’Università Cattolica di Milano ed alla Pontificia Università Gregoriana a Roma. Tra i pionieri dell’uso dell’informatica nella linguistica, P. Busa, in collaborazione con l’IBM, ha realizzato, a partire dal 1949, la monumentale impresa dell’<em>Index Thomisticus</em>, informatizzando l’<em>opera omnia</em> di San Tommaso d’Aquino e dei testi a lui connessi. Nel 1980 è uscita l’edizione a stampa in 56 volumi e dal 1992 è disponibile su cd-rom. Sfruttando l’apporto del computer che permette di realizzare censimenti integrali in breve tempo di molti universi linguistici chiusi, ha assicurato alle scienze linguistiche una maggiore precisione scientifica. Si è concentrato sulle più di 11 milioni parole latine del <em>corpus thomisticum</em> e, successivamente, su altrettanti di altre 22 lingue di 9 alfabeti diversi. L’<em>Index Thomisticus</em> è un progetto linguistico pioniere nel suo genere, in cui ogni parola è fornita di ipertesti interni che, tra le numerose caratteristiche, specificano lemma, morfologia, tipologie e semantica. Questo lavoro è importante sia dal punto di vista dei contenuti che da quello del modello metodologico adottato. “La linguistica  computazionale – ricorda P. Busa – dovrebbe condurre gli studiosi a una maggiore attenzione alle parole, cioè a pensare le parole prima di esprimerle e questo oggi è molto importante”.",
      "image": "https://gesuiti.it/wp-content/uploads/2012/07/Busa.jpg",
      "year": 1913,
      "yearEnd": 2011
    },
    {
      "title": "Card. Carlo Maria Martini SJ",
      "category": "Personaggi",
      "content": "Il Cardinal Carlo Maria Martini (Torino 1927 - Gallarate 2012) può essere considerato come uno dei più grandi interpreti della fede nella post-modernità. E' stato un uomo di preghiera e di servizio fedele alla Chiesa, ma anche di ascolto della pluralità di voci della nostra società globalizzata.  Fin da ragazzo nutre una vera passione per le Sacre Scritture, che si svilupperà poi con i successivi studi biblici. Questa passione lo porta del resto a diventare uno dei pochi esperti cattolici di critica testuale, capace di collaborare nei comitati scientifici internazionali. Il lavoro di biblista è interrotto dalla sua elezione a Arcivescovo di Milano, nel 1979. Sembra che Giovanni Paolo II fosse rimasto colpito dalla sua capacità di rendere vivo il testo biblico. Forse per questo lo vuole in una delle città più secolarizzate d'Italia. E in effetti la prima preoccupazione del vescovo Martini è di accompagnare la diocesi ambrosiana, naturalmente portata all'azione, a riscoprire \"La dimensione contemplativa vita\" (titolo della sua prima lettera pastorale). Martini inventa poi  \"La scuola della Parola\", cioè una serie di incontri proposti ai giovani per imparare a pregare a partire dal testo biblico, ispirandosi all'antico metodo monastico della <em>Lectio Divina</em>. Altra iniziativa caratterizzante il suo episcopato è la \"La cattedra dei non credenti\". Dei non-credenti d'autorità riconosciuta sono stati chiamati a dare un insegnamento alla Diocesi, nella convinzione che un ascolto reciproco tra credenti e non è utile a entrambe, affinando l'ascolto di ciascuno alla fede e all'incredulità che abitano lo spirito umano. Infine Martini è stato riconosciuto come una delle più importanti personalità pubbliche nella vita della città, avendo giocato un ruolo di mediazione nelle diverse tensioni che hanno attraversato la società civile, durante i 23 anni del suo episcopato.",
      "image": "https://gesuiti.it/wp-content/uploads/2012/07/Martini.jpg",
      "year": 1927,
      "yearEnd": 2012
    },
    {
      "title": "P. Ignacio Ellacuría SJ e compagni martiri",
      "category": "Personaggi",
      "content": "A San Salvador, la notte del 16 novembre 1989, una squadra di militari fa  irruzione nella casa dei gesuiti della Università Centroamericana (UCA) e uccide sei religiosi: Ignacio Ellacuria, rettore, filosofo e teologo, figura rappresentativa del gruppo, e Segundo Montes, Ignacio Martìn Barò, Amando Lopez, Juan Ramòn Moreno e Joaquin Lopez. Con loro vengono uccise anche due donne del servizio: Elba Ramos e la figlia Celina. Nel 1989 il paese centramericano di El Salvador si trova in piena tensione sociale. Fondato su un'economia agraria, con grandi latifondisti da un lato e braccianti senza terra dall'altro, è attraversato da povertà e  ingiustizie. La chiesa salvadoregna riceve rinforzi da tutta la Chiesa e anche dalla Compagnia di Gesù. In particolare il gruppo di missionari gesuiti dell'UCA, attenti alla realtà circostante e con la riflessione teologica, s'impegna in una presa di coscienza, formando gli studenti ad assumersi la responsabilità sociale, civica e politica del paese. Uomini di dialogo, di fronte agli atteggiamenti violenti della destra e della sinistra, i gesuiti dell'UCA sperano in una terza forza che pratichi la negoziazione tra le parti, unica soluzione possibile per raggiungere la pace nazionale. Ignazio, addolorato per gli atti di terrorismo, accetta la richiesta del governo di collaborare come mediatore, criticando la recente offensiva guerrigliera e riaffermando la sua fiducia nella negoziazione. Tuttavia l'atteso dialogo si trasforma in terrore, con la violenta morte, in una notte, di P. Ellacuria e compagni. Ellacuria fu un uomo di ideali utopici, contrario a ogni violenza e, seppur influenzato in alcune idee da Marx, di un pensiero solidamente innestato nella fede cristiana. Il contatto con i più poveri portò alla morte di questi gesuiti, che così testimoniano l'attaccamento al popolo salvadoregno, in uno con la loro consacrazione a Dio.",
      "image": "https://gesuiti.it/wp-content/uploads/2012/07/ellacuria.jpg",
      "year": 1930,
      "yearEnd": 1989
    },
    {
      "title": "Nasce Radio Vaticana affidata ai gesuiti",
      "category": "Vicende",
      "content": "Nel 1929 il papa Pio XI incarica Guglielmo Marconi di costruire una stazione radio all'interno del nuovo Stato Vaticano e chiama P. Giuseppe Gianfranceschi SJ, fisico e matematico, come direttore (su suggerimento dello stesso Marconi). A lui succedono come direttori generali P. Filippo Soccorsi SJ (1934-1953), P. Antonio Stefanizzi SJ (1953-1967), P. Giacomo Martegani SJ (1967-1973), P. Roberto Tucci SJ (1973-1985), P. Pasquale Borgomeo SJ(1985-2009), P. Federico Lombardi SJ.",
      "image": "https://gesuiti.it/wp-content/uploads/2012/07/radiovaticana.jpg",
      "year": 1930,
      "yearEnd": ""
    },
    {
      "title": "Nasce la rivista \"Aggiornamenti Sociali\"",
      "category": "Eventi",
      "content": "Nasce per diffondere l’insegnamento sociale della Chiesa e favorire la crescita di una autentica democrazia nel Paese, uscito dal fascismo e dalla guerra, secondo la Costituzione repubblicana. Preparata dal Centro studi sociali dei gesuiti di Milano, si rivolge a sacerdoti e a laici impegnati in campo sociale, per aggiornarli mensilmente, offrendo quanto di meglio apparso sulla stampa, con inquadramenti, valutazioni, precisazioni e rilievi.",
      "image": "https://gesuiti.it/wp-content/uploads/2012/07/aggiornamentisociali.jpg",
      "year": 1950,
      "yearEnd": ""
    },
    {
      "title": "La Compagnia del dopoconcilio: servizio alla fede, povertà e giustizia",
      "category": "Vicende",
      "content": "Concluso nel 1965, il Concilio aveva promosso per tutti i religiosi il ritorno al carisma originario. Questo significa per la Compagnia prima di tutto ripresa e incremento degli studi sugli scritti di Ignazio, specie le Costituzioni. La formazione dei giovani gesuiti viene, inoltre, modellata sul pensiero del Concilio circa la vita religiosa. Il Concilio e la XXXI Congregazione Generale, poi, mettono in evidenza la necessità di un impegno ecumenico più attivo, e in India i padri uniscono protestanti e cattolici nel campo dell'educazione cristiana. Sin dalle origini alla Compagnia interessavano principalmente le necessità pastorali e sociali: questa tradizione adesso è favorita dalla crescente coscienza nella Chiesa delle ingiustizie e della povertà del mondo. Questi sono alcuni degli sviluppi che portano padre Arrupe a convocare una nuova Congregazione Generale, che ha luogo dal 2 dicembre 1974 al 7 marzo 1975. Tra i suoi 16 decreti, due in particolare - il quarto e il dodicesimo -  evidenziano i netti cambiamenti dei tempi. Dalla stesura particolarmente laboriosa, il quarto decreto ha però un obiettivo chiaro: il servizio della fede e la promozione della giustizia forniscono il moderno contesto in cui la Compagnia deve collocare tutti i tipi del suo lavoro apostolico. Il quarto decreto rappresenta ancora oggi un testo obbligato di riferimento. Il dodicesimo decreto sulla povertà è un altro esempio dei notevoli cambiamenti sociali della Chiesa. Dopo il Concilio, l'intera cristianità si è impegnata per una più profonda comprensione e nuove esperienza della povertà evangelica. La Compagnia stessa opera questo cambiamento passando da una povertà intesa come questua, a una intesa come servizio. Nel tempo, l'originalità della Compagnia è la fedeltà alla chiamata storica di Dio che, in ogni epoca, chiede di adottare uno spirito per cui il comportamento dei gesuiti deve unire costantemente conversione personale e riforma delle strutture.",
      "image": "https://gesuiti.it/wp-content/uploads/2012/07/rahner1.jpg",
      "year": 1970,
      "yearEnd": "",
      "isMilestone": true
    }
  ]
