{
  "mainmenu": [
    {
      "name": "Home",
      "slug": "home",
      "url": "/"
    },
    {
      "name": "Chi siamo",
      "slug": "chi-siamo",
      "children": [
        {
          "name": "La Provincia Euro-Mediterranea",
          "slug": "la-provincia-euro-mediterranea",
          "url": "/la-provincia-euro-mediterranea/"
        },
        {
          "name": "La Compagnia di Gesù",
          "slug": "la-compagnia-di-gesu",
          "url": "/la-compagnia-di-gesu/"
        },
        {
          "name": "La nostra storia",
          "slug": "storia-della-compagnia",
          "url": "/storia-della-compagnia/"
        },
        {
          "name": "Ignazio di Loyola",
          "slug": "ignazio-di-loyola",
          "url": "/storia-di-ignazio/"
        }
      ]
    },
    {
      "name": "Spiritualità ignaziana",
      "children": [
        {
          "name": "Cercare Dio in tutte le cose",
          "slug": "spiritualita-ignaziana",
          "url": "/spiritualita-ignaziana/"
        },
        {
          "name": "Cosa ci caratterizza",
          "slug": "cosa-ci-caratterizza",
          "url": "/cosa-ci-caratterizza/"
        },
        {
          "name": "Il nostro legame con la Chiesa",
          "slug": "il-nostro-legame-con-la-chiesa",
          "url": "/il-nostro-legame-con-la-chiesa/"
        }
      ]
    },
    {
      "name": "Cosa facciamo",
      "children": [
        {
          "name": "Tutti gli ambiti",
          "slug": "cosa-facciamo",
          "url": "/cosa-facciamo/"
        },
        {
          "name": "Giovani",
          "slug": "giovani",
          "url": "/giovani/"
        },
        {
          "name": "Educazione",
          "slug": "educazione",
          "url": "/educazione/"
        },
        {
          "name": "Preghiera",
          "slug": "preghiera",
          "url": "/preghiera/"
        },
        {
          "name": "Sociale",
          "slug": "sociale",
          "url": "/sociale/"
        },
        {
          "name": "Missioni",
          "slug": "missioni",
          "url": "/missioni/"
        },
        {
          "name": "Cura del creato",
          "slug": "cura-del-creato",
          "url": "/cura-del-creato/"
        },
        {
          "name": "Chiese",
          "slug": "chiese",
          "url": "/chiese/"
        },
        {
          "name": "Cultura",
          "slug": "cultura",
          "url": "/cultura/"
        },
        {
          "name": "Formazione",
          "slug": "formazione",
          "url": "/formazione/"
        },
        {
          "name": "Leadership",
          "slug": "leadership",
          "url": "/leadership/"
        }
      ]
    },
    {
      "name": "Diventare gesuita",
      "children": [
        {
          "name": "Il nostro stile",
          "slug": "diventare-gesuita",
          "url": "/diventare-gesuita/"
        },
        {
          "name": "I passi da fare",
          "slug": "i-passi-da-fare",
          "url": "/i-passi-da-fare/"
        },
        {
          "name": "La nostra formazione",
          "slug": "tappe-formazione",
          "url": "/tappe-formazione/"
        },
        {
          "name": "Storie di vocazione",
          "slug": "storie-di-vocazione",
          "url": "/storie-di-vocazione/"
        }
      ]
    },
    {
      "name": "News",
      "slug": "news",
      "url": "/news/"
    }
  ],
  "secondarymenu": [
    {
      "name": "Risorse",
      "slug": "risorse",
      "url": "/risorse/"
    },
    {
      "name": "Contatti",
      "slug": "contatti",
      "url": "/contatti/"
    },
    {
      "name": "Dove siamo",
      "slug": "dove-siamo",
      "url": "/dove-siamo/"
    },
    {
      "name": "Faq",
      "slug": "faq",
      "url": "/faq/"
    },
    {
      "name": "Tutela",
      "slug": "tutela",
      "url": "/tutela/"
    },
    {
      "name": "Donazioni",
      "slug": "donazioni",
      "url": "/donazioni/"
    }
  ],
  "current": "none"
}
