[
    {
      "title": "Ignazio di Loyola: trovare Dio in tutte le cose",
      "id": "Oeq8p687RIY"
    },
    {
      "title": "Primi voti: quel legame che libera",
      "id": "MFvnH8Yc4zg"
    },
    {
      "title": "L'opportunità dell'Anno Ignaziano 2021-2022",
      "id": "Zgkr8u7w_mM"
    },
    {
      "title": "Il Noviziato in 6 parole",
      "id": "WRHpSWdPfzg"
    },
    {
      "title": "P. Sosa: \"L'eredità di p. Nicolas\"",
      "id": "fuQSHp7zqoI"
    },
    {
      "title": "Gli Esercizi Spirituali ignaziani \"fatti in casa\"",
      "id": "fllkgUTx16U"
    },
    {
      "title": "#JesuitStories: Nel profondo",
      "id": "qMuC7gwfEEg"
    },
    {
      "title": "Senti la chiamata di Dio? | Preferenze Apostoliche Universali",
      "id": "TgUJvtzUuZA"
    },
    {
      "title": "Breathing Together: A Global Ignatian Vigil Prayer for the Season of Creation",
      "id": "QEQIxZlQTyc"
    },
    {
      "title": "Le camere di San Luigi Gonzaga",
      "id": "4-igQb2NNxM"
    }
  ]
